Édition;;;;
idÉdition;titre;lieu;début;fin
1;Symposium de Pataphysique Appliquée;Paris;11.04.2017;15.04.2017
2;Symposium de Pataphysique Appliquée;New York;15.10.2017;19.10.2017
3;SIAM Conference on Data Mining ;Houston;27.04.2017;29.04.2017
4;SIAM Conference on Data Mining ;San Diego;03.05.2018;05.05.2018
;;;;
;;;;
;;;;
;;;;